{
	"compilerOptions": {
		"checkJs": true,
		"strict": true,
		"target": "esnext",
		"module": "system",
		"noImplicitReturns": true,
		"noFallthroughCasesInSwitch": true,
		"noUnusedLocals": true,
		"noUnusedParameters": true
	},
	"include": [
		"*.js",
		"*.ts",
		"background/**/*.js",
		"background/**/*.ts",
		"content/**/*.js",
		"content/**/*.ts",
		"ui/**/*.js",
		"ui/**/*.ts",
		"utils/**/*.js",
		"utils/**/*.ts",
		"utils/uaparser.js",
		
		"node_modules/web-ext-types/global/index.d.ts",
		"deps/**/*.d.ts"
	]
}