{
    "extension_description": {
        "message": "Позволяет легко переопределить строку User-Agent браузера"
    },
    "options_entries_caption": {
        "message": "Записи User-Agent"
    },
    "popup_item_options": {
        "message": "Настройки…"
    },
    "icon_title_enabled": {
        "message": "включено"
    },
    "icon_title_disabled": {
        "message": "выключено"
    },
    "options_entries_reset": {
        "message": "Сбросить к значениям по умолчанию",
        "description": "Options page link for loading the entries defaults"
    },
    "options_entries_reset_undo_text": {
        "message": "Значения по умолчанию восстановлены",
        "description": "Text of popup that is shown after the reset link has been clicked"
    },
    "options_entries_reset_undo_button": {
        "message": "Отменить сброс",
        "description": "Label of button for undoing a reset (displayed below the text that asserts that the options have just been reset)"
    },
    "options_entries_switch_text": {
        "message": "Переключиться в текстовый режим",
        "description": "Options page link for switching from table to text mode"
    },
    "options_entries_switch_table": {
        "message": "Переключиться в табличный режим",
        "description": "Options page link for switching from text to table mode"
    },
    "options_entries_heading_label": {
        "message": "Название",
        "description": "Options page table editor heading for the column with user-facing User-Agent-String labels"
    },
    "options_entries_heading_string": {
        "message": "Строка",
        "description": "Options page table editor heading for the column with the actual server-reported User-Agent-Strings"
    },
    "popup_item_default": {
        "message": "По умолчанию",
        "description": "The label of the menu item that disables the User-Agent-Overrider and lets the browser send its default User-Agent-String"
    },
    "options_entries_heading_category": {
        "message": "Категория",
        "description": "Options page table editor heading for the column with general category of the given User-Agent-String"
    },
    "useragent_category_desktop": {
        "message": "Настольные компьютеры",
        "description": "Default category label for browsers on desktop devices"
    },
    "useragent_category_mobile": {
        "message": "Мобильные устройства",
        "description": "Default category label for browsers on mobile devices"
    },
    "useragent_category_bot": {
        "message": "Поисковые боты",
        "description": "Default category label for search engine bots"
    },
    "useragent_category_other": {
        "message": "Другие",
        "description": "Default category label for unclassified client software"
    },
    "icon_title_random": {
        "message": "режим случайного выбора",
        "description": "Text displayed in the browser action icon tooltip when the User-Agent header is choosen at random"
    },
    "popup_item_random": {
        "message": "Cлучайный выбор",
        "description": "The label of the menu item for enabling time-based User-Agent randomization"
    },
    "popup_item_random_categories": {
        "message": "Категории:",
        "description": "The section header of the categories selection of random selection mode"
    },
    "popup_item_random_interval_mode_restart": {
        "message": "Только при запуске",
        "description": "The label of the menu item for enabling the time-based User-Agent randomization only on extension and browser startup"
    },
    "popup_item_random_interval_mode_timed": {
        "message": "Каждые:",
        "description": "The label of the menu item for enabling the time-based User-Agent randomization at regular intervals"
    },
    "popup_item_random_interval_unit_minutes": {
        "message": "мин",
        "description": "A User-Agent randomization time interval"
    },
    "popup_item_random_interval_unit_hours": {
        "message": "ч",
        "description": "A User-Agent randomization time interval"
    },
    "popup_item_random_interval_unit_days": {
        "message": "д",
        "description": "A User-Agent randomization time interval"
    },
    "option_badge_text": {
        "message": "Показывать название User-Agent на значке?",
        "description": "Text of checkbox option to show/hide the two to four letter abbreviations displayed ontop of the browser action icon"
    },
    "option_random_jitter": {
        "message": "Дисперсия (разброс) случайного режима",
        "description": "Text of numeric option (0-100) for setting by how many per-cent the random-interval value should (on avarage) be varied"
    },
    "popup_item_override_tpl": {
        "message": "\"$HOSTNAME$\"",
        "description": "Label of an individual selectable override domain",
        "placeholders": {
            "hostname": {
                "content": "$1",
                "example": "https://www.example.net"
            }
        }
    },
    "popup_item_override": {
        "message": "Переопределение для домена",
        "description": "Label of the checkbox that can be used to switch from setting the global User-Agent string to a per-site value"
    },
    "icon_title_override_disabled": {
        "message": "Выключено переопределением",
        "description": "Text displayed in the browser action icon tooltip when no request processing is being done because of an override being set"
    },
    "icon_title_override_enabled": {
        "message": "Включено переопределением",
        "description": "Text displayed in the browser action icon tooltip when request processing is being done because of an override being set"
    },
    "options_entries_heading_enabled": {
        "message": "Включен",
        "description": "Options page table editor heading for the column allowing to enabled or disable items"
    },
    "option_popup_override_size_description": {
        "message": "Включить, если всплывающее окно плохо отображается на вашем устройстве",
        "description": "Description text of checkbox option to force the extension popup to a static/larger size than it would normally be according to the browser defaults"
    },
    "option_popup_override_size": {
        "message": "Принудительный размер всплывающего окна/меню по умолчанию",
        "description": "Text of checkbox option to force the extension popup to a static/larger size than it would normally be according to the browser defaults (note that this also has a description attached)"
    }
}
