{
    "extension_description": {
        "message": "Overstyr nettleserens brukeragentstreng enkelt",
        "description": "Extension description"
    },
    "option_badge_text": {
        "message": "Vis brukeragent som tekst på ikon?",
        "description": "Text of checkbox option to show/hide the two to four letter abbreviations displayed ontop of the browser action icon"
    },
    "option_random_jitter": {
        "message": "Varians for tilfeldig modus",
        "description": "Text of numeric option (0-100) for setting by how many per-cent the random-interval value should (on avarage) be varied"
    },
    "options_entries_caption": {
        "message": "Brukeragentoppføringer",
        "description": "Header text of the entries editor in the extension options"
    },
    "options_entries_reset": {
        "message": "Tilbakestill til forvalgte verdier",
        "description": "Options page link for loading the entries defaults"
    },
    "options_entries_reset_undo_text": {
        "message": "Forvalgte verdier gjenopprettet",
        "description": "Text of popup that is shown after the reset link has been clicked"
    },
    "options_entries_reset_undo_button": {
        "message": "Angre tilbakestilling",
        "description": "Label of button for undoing a reset (displayed below the text that asserts that the options have just been reset)"
    },
    "options_entries_switch_text": {
        "message": "Bytt til tekstmodus",
        "description": "Options page link for switching from table to text mode"
    },
    "options_entries_switch_table": {
        "message": "Bytt til listemodus",
        "description": "Options page link for switching from text to table mode"
    },
    "options_entries_heading_label": {
        "message": "Etikett",
        "description": "Options page table editor heading for the column with user-facing User-Agent-String labels"
    },
    "options_entries_heading_category": {
        "message": "Kategori",
        "description": "Options page table editor heading for the column with general category of the given User-Agent-String"
    },
    "options_entries_heading_string": {
        "message": "Streng",
        "description": "Options page table editor heading for the column with the actual server-reported User-Agent-Strings"
    },
    "useragent_category_desktop": {
        "message": "Skrivebord",
        "description": "Default category label for browsers on desktop devices"
    },
    "useragent_category_mobile": {
        "message": "Mobil",
        "description": "Default category label for browsers on mobile devices"
    },
    "useragent_category_bot": {
        "message": "Robot",
        "description": "Default category label for search engine bots"
    },
    "useragent_category_other": {
        "message": "Annet",
        "description": "Default category label for unclassified client software"
    },
    "icon_title_random": {
        "message": "Tilfeldig modus",
        "description": "Text displayed in the browser action icon tooltip when the User-Agent header is choosen at random"
    },
    "icon_title_enabled": {
        "message": "Påskrudd",
        "description": "Text displayed in the browser action icon tooltip when request processing is being done"
    },
    "icon_title_disabled": {
        "message": "Avskrudd",
        "description": "Text displayed in the browser action icon tooltip when no request processing is being done"
    },
    "popup_item_options": {
        "message": "Innstillinger…",
        "description": "The label of the menu item for opening the extension's preference page"
    },
    "popup_item_random": {
        "message": "Skru på tilfeldig modus",
        "description": "The label of the menu item for enabling time-based User-Agent randomization"
    },
    "popup_item_random_categories": {
        "message": "Kategorier:",
        "description": "The section header of the categories selection of random selection mode"
    },
    "popup_item_random_interval_mode_restart": {
        "message": "Kun ved oppstart",
        "description": "The label of the menu item for enabling the time-based User-Agent randomization only on extension and browser startup"
    },
    "popup_item_random_interval_mode_timed": {
        "message": "Hver:",
        "description": "The label of the menu item for enabling the time-based User-Agent randomization at regular intervals"
    },
    "popup_item_random_interval_unit_minutes": {
        "message": "Minutt(er)",
        "description": "A User-Agent randomization time interval"
    },
    "popup_item_random_interval_unit_hours": {
        "message": "Time(r)",
        "description": "A User-Agent randomization time interval"
    },
    "popup_item_random_interval_unit_days": {
        "message": "Dag(er)",
        "description": "A User-Agent randomization time interval"
    },
    "popup_item_default": {
        "message": "Forvalg",
        "description": "The label of the menu item that disables the User-Agent-Overrider and lets the browser send its default User-Agent-String"
    },
    "icon_title_override_enabled": {
        "message": "Aktivert av overstyring",
        "description": "Text displayed in the browser action icon tooltip when request processing is being done because of an override being set"
    },
    "icon_title_override_disabled": {
        "message": "Avskrudd av overstyring",
        "description": "Text displayed in the browser action icon tooltip when no request processing is being done because of an override being set"
    },
    "popup_item_override": {
        "message": "Overstyr for domene",
        "description": "Label of the checkbox that can be used to switch from setting the global User-Agent string to a per-site value"
    },
    "popup_item_override_tpl": {
        "message": "“$HOSTNAME$”",
        "description": "Label of an individual selectable override domain"
    },
    "options_entries_heading_enabled": {
        "message": "Påskrudd",
        "description": "Options page table editor heading for the column allowing to enabled or disable items"
    },
    "option_popup_override_size": {
        "message": "Tving standard oppsprett-/menystørrelse",
        "description": "Text of checkbox option to force the extension popup to a static/larger size than it would normally be according to the browser defaults (note that this also has a description attached)"
    },
    "option_popup_override_size_description": {
        "message": "Skru på hvis oppsprettsvinduet er for lite på din enhet",
        "description": "Description text of checkbox option to force the extension popup to a static/larger size than it would normally be according to the browser defaults"
    }
}
